SLR: Permutation test for the slope – STA 210 - Spring 2026
…
Fit models to each of the samples and estimate the slope

Use features of the distribution of the bootstrapped slopes to construct a confidence interval

Bootstrapping pipeline I

set.seed(210)

duke_forest |>
  specify(price ~ area)

Response: price (numeric)
Explanatory: area (numeric)
# A tibble: 98 × 2
     price  area
     <dbl> <dbl>
 1 1520000  6040
 2 1030000  4475
 3  420000  1745
 4  680000  2091
 5  428500  1772
 6  456000  1950
 7 1270000  3909
 8  557450  2841
 9  697500  3924
10  650000  2173
# ℹ 88 more rows

Bootstrapping pipeline II

set.seed(210)

duke_forest |>
  specify(price ~ area) |>
  generate(reps = 1000, type = "bootstrap")

Response: price (numeric)
Explanatory: area (numeric)
# A tibble: 98,000 × 3
# Groups:   replicate [1,000]
   replicate   price  area
       <int>   <dbl> <dbl>
 1         1  290000  2414
 2         1  285000  2108
 3         1  265000  1300
 4         1  416000  2949
 5         1  541000  2740
 6         1  525000  2256
 7         1 1270000  3909
 8         1  265000  1300
 9         1  815000  3904
10         1  535000  2937
# ℹ 97,990 more rows

Bootstrapping pipeline III

set.seed(210)

duke_forest |>
  specify(price ~ area) |>
  generate(reps = 1000, type = "bootstrap") |>
  fit()

# A tibble: 2,000 × 3
# Groups:   replicate [1,000]
   replicate term      estimate
       <int> <chr>        <dbl>
 1         1 intercept   80699.
 2         1 area          168.
 3         2 intercept  -18821.
 4         2 area          205.
 5         3 intercept  234297.
 6         3 area          117.
 7         4 intercept  134481.
 8         4 area          150.
 9         5 intercept   23861.
10         5 area          190.
# ℹ 1,990 more rows
…
Simulate new samples from the original sample via permutation

Fit models to each of the samples and estimate the slope

Use features of the distribution of the permuted slopes to conduct a hypothesis test

Permutation, described

Use permuting to simulate data under the assumption the null hypothesis is true and measure the natural variability in the data due to sampling, not due to variables being correlated

Permute one variable to eliminate any existing relationship between the variables

Each price value is randomly assigned to the area of a given house, i.e. area and price are no longer matched for a given house

# A tibble: 98 × 3
   price_Observed price_Permuted  area
            <dbl>          <dbl> <dbl>
 1        1520000         342500  6040
 2        1030000         750000  4475
 3         420000         645000  1745
 4         680000         697500  2091
 5         428500         428500  1772
 6         456000         481000  1950
 7        1270000         610000  3909
 8         557450         680000  2841
 9         697500         485000  3924
10         650000         105000  2173
# ℹ 88 more rows
…
Permutation pipeline I

set.seed(210)

duke_forest |>
  specify(price ~ area)

Response: price (numeric)
Explanatory: area (numeric)
# A tibble: 98 × 2
     price  area
     <dbl> <dbl>
 1 1520000  6040
 2 1030000  4475
 3  420000  1745
 4  680000  2091
 5  428500  1772
 6  456000  1950
 7 1270000  3909
 8  557450  2841
 9  697500  3924
10  650000  2173
# ℹ 88 more rows

Permutation pipeline II

set.seed(210)

duke_forest |>
  specify(price ~ area) |>
  hypothesize(null = "independence")

Response: price (numeric)
Explanatory: area (numeric)
Null Hypothesis: indepe...
# A tibble: 98 × 2
     price  area
     <dbl> <dbl>
 1 1520000  6040
 2 1030000  4475
 3  420000  1745
 4  680000  2091
 5  428500  1772
 6  456000  1950
 7 1270000  3909
 8  557450  2841
 9  697500  3924
10  650000  2173
# ℹ 88 more rows

Permutation pipeline III

set.seed(210)

duke_forest |>
  specify(price ~ area) |>
  hypothesize(null = "independence") |>
  generate(reps = 1000, type = "permute")

Response: price (numeric)
Explanatory: area (numeric)
Null Hypothesis: indepe...
# A tibble: 98,000 × 3
# Groups:   replicate [1,000]
     price  area replicate
     <dbl> <dbl>     <int>
 1  290000  6040         1
 2  285000  4475         1
 3  265000  1745         1
 4  416000  2091         1
 5  541000  1772         1
 6  525000  1950         1
 7 1270000  3909         1
 8  490000  2841         1
 9  535000  3924         1
10  481000  2173         1
# ℹ 97,990 more rows

Permutation pipeline IV

set.seed(210)

duke_forest |>
  specify(price ~ area) |>
  hypothesize(null = "independence") |>
  generate(reps = 1000, type = "permute") |>
  fit()

# A tibble: 2,000 × 3
# Groups:   replicate [1,000]
   replicate term        estimate
       <int> <chr>          <dbl>
 1         1 intercept 560741.   
 2         1 area          -0.303
 3         2 intercept 531330.   
 4         2 area          10.3  
 5         3 intercept 533014.   
 6         3 area           9.67 
 7         4 intercept 388765.   
 8         4 area          61.6  
 9         5 intercept 607389.   
10         5 area         -17.1  
# ℹ 1,990 more rows
…
