Multiple linear regression (MLR) – STA 210 - Spring 2026
…
Introduce multiple linear regression

Interpret coefficients in multiple linear regression model

Compute predictions and associated intervals for multiple linear regression models

Considering multiple variables

Data: Palmer penguins

The penguins data set contains data for penguins found on three islands in the Palmer Archipelago, Antarctica. Data were collected and made available by Dr. Kristen Gorman and the Palmer Station, Antarctica LTER, a member of the Long Term Ecological Research Network. These data can be found in the palmerpenguins R package.

. . .

# A tibble: 342 × 4
   body_mass_g flipper_length_mm bill_length_mm species
         <int>             <int>          <dbl> <fct>  
 1        3750               181           39.1 Adelie 
 2        3800               186           39.5 Adelie 
 3        3250               195           40.3 Adelie 
 4        3450               193           36.7 Adelie 
 5        3650               190           39.3 Adelie 
 6        3625               181           38.9 Adelie 
 7        4675               195           39.2 Adelie 
 8        3475               193           34.1 Adelie 
 9        4250               190           42   Adelie 
10        3300               186           37.8 Adelie 
# ℹ 332 more rows
…
